id;0.4628888888888889;0.28465384360496965
id;0.43866666666666665;0.2733223564190111
id;0.4811111111111111;0.2826498453787503
id;0.4533333333333333;0.25311574111535967
id;0.43;0.26275802798453446
fft;0.4071111111111111;0.22212853371162533
fft;0.4022222222222222;0.23516584926289286
fft;0.44155555555555553;0.22397052358797398
fft;0.42333333333333334;0.20897997599852713
fft;0.4431111111111111;0.22696657213449975
shuffle;0.4766666666666667;0.297536567990498
shuffle;0.45155555555555554;0.2676082087709891
shuffle;0.5344444444444445;0.31371402021470124
shuffle;0.4493333333333333;0.2713081758291533
shuffle;0.4713333333333333;0.2931738869960687
zero33;0.5042222222222222;0.38716593962657997
zero33;0.48;0.40505399921480373
zero33;0.4915555555555556;0.4016379769513095
zero33;0.4911111111111111;0.38053740479636017
zero33;0.572;0.4051113305148296
random20;0.512;0.33239166147096655
random20;0.4622222222222222;0.29733856072081555
random20;0.4653333333333333;0.29021358632095196
random20;0.5082222222222222;0.29491037109719803
random20;0.5113333333333333;0.28092762091177975
trim10;0.5297777777777778;0.4064069610104123
trim10;0.49844444444444447;0.3833582143298769
trim10;0.5344444444444445;0.3978112185456694
trim10;0.5208888888888888;0.42078240103082465
trim10;0.4782222222222222;0.36955993936158443
cr;0.4368888888888889;0.25374347568700256
cr;0.40844444444444444;0.24182213982426026
cr;0.4886666666666667;0.27012264041622414
cr;0.3688888888888889;0.20254178059915537
cr;0.33666666666666667;0.20145180340155122
qcr;0.4291111111111111;0.2571012265498927
qcr;0.44355555555555554;0.2734890245685075
qcr;0.49266666666666664;0.28875494099478705
qcr;0.42377777777777775;0.2472910524419493
qcr;0.39844444444444443;0.2375453423297307
