id;0.453333333333333;0.292074591155042
fft;0.39562962962963;0.220098060493138
random20;0.466592592592593;0.282826700453795
shuffle;0.459037037037037;0.292582680555136
trim10;0.475481481481482;0.367386511282931
zero33;0.492518518518519;0.384028526587448
qcr;0.43229;0.25978
cr;0.432444;0.25029

