(0.9303083143499057, array([[41,  1,  0,  1,  0,  1,  1],
       [ 0, 75,  5,  3,  0,  0,  0],
       [ 0,  3, 70,  7,  0,  1,  0],
       [ 0,  7,  4, 72,  0,  1,  0],
       [ 0,  0,  0,  0, 77,  0,  0],
       [ 0,  1,  0,  0,  0, 49,  0],
       [ 0,  1,  0,  1,  1,  0, 77]]))
{'loss': [1.430924950811598, 0.8044779245588515, 0.5663726857503255, 0.45293467542860244, 0.37699624864260356, 0.32609168140093486, 0.2773717300362057, 0.24238852392302618, 0.22270473824607, 0.19579197798834908, 0.17738455736637115, 0.1473401542107264, 0.12775961727731758, 0.14055597191055616, 0.1018658050497373, 0.08958986571100024, 0.07729565688636568, 0.09238078951173359, 0.0721380772870034, 0.065243254163199, 0.050067491008175743, 0.05351816031254, 0.046845166919959914, 0.07445441267556614, 0.0364189303604265, 0.03092236671358761, 0.02930420635940714, 0.032158339038284287, 0.08520078084328109, 0.02107937883358035], 'acc': [0.40822223, 0.7046667, 0.8048889, 0.846, 0.87755555, 0.89, 0.9088889, 0.9204444, 0.92444444, 0.9388889, 0.9402222, 0.95177776, 0.9586667, 0.9582222, 0.9671111, 0.97444445, 0.9757778, 0.9726667, 0.9777778, 0.978, 0.98444444, 0.98444444, 0.9864445, 0.9773333, 0.988, 0.9915556, 0.98955554, 0.9908889, 0.9728889, 0.99311113]}