(0.9469938189286432, array([[42,  0,  0,  2,  0,  0,  1],
       [ 0, 77,  5,  1,  0,  0,  0],
       [ 0,  4, 69,  8,  0,  0,  0],
       [ 0,  2,  4, 78,  0,  0,  0],
       [ 0,  0,  0,  0, 77,  0,  0],
       [ 1,  0,  1,  0,  0, 48,  0],
       [ 0,  0,  0,  0,  1,  0, 79]]))
{'loss': [1.2404289921124776, 0.5165858199331496, 0.36753691432211133, 0.27909557061725193, 0.2284454300403595, 0.16486677190330293, 0.14328302795357176, 0.13332770403226216, 0.08687030726671219, 0.08026942803420954, 0.0871074234843254, 0.0665891818429033, 0.04498439583306511, 0.037268182317622835, 0.060061400120250054, 0.046935586916075814, 0.02341409597548449, 0.06181175451932682, 0.038574741108136044, 0.015346501069143415, 0.013266218923963607, 0.014782036575488745, 0.014446657176439962, 0.009473909883811657, 0.02862068956138359, 0.026983634651949008, 0.016719206490916096, 0.01218523526419368, 0.017545650721010234, 0.04703129339714845], 'acc': [0.5091111, 0.81844443, 0.8762222, 0.91044444, 0.9266667, 0.9444444, 0.9495556, 0.95955557, 0.9722222, 0.97355556, 0.9708889, 0.9802222, 0.98755556, 0.9904444, 0.9831111, 0.9866667, 0.99377775, 0.9822222, 0.98822224, 0.9962222, 0.99644446, 0.9955556, 0.9962222, 0.99755555, 0.9906667, 0.9915556, 0.9962222, 0.9955556, 0.9953333, 0.9891111]}