(0.9465884909806992, array([[43,  0,  0,  1,  0,  0,  1],
       [ 0, 81,  2,  0,  0,  0,  0],
       [ 0,  6, 62, 12,  0,  1,  0],
       [ 0,  2,  2, 79,  0,  1,  0],
       [ 0,  0,  0,  0, 77,  0,  0],
       [ 0,  0,  0,  0,  0, 50,  0],
       [ 0,  0,  0,  0,  1,  1, 78]]))
{'loss': [1.2486844956080119, 0.6201952379544576, 0.4545880789491865, 0.3474474827448527, 0.31645800760057236, 0.26169327402114867, 0.2334218538072374, 0.1997747017244498, 0.17822017551792993, 0.14658758019076454, 0.12045270895957946, 0.12639021895329158, 0.10575656067662768, 0.10544711067941454, 0.08467811594406764, 0.079146296131942, 0.06815546926607688, 0.10024449677434233, 0.0554491335981422, 0.049804410866565174, 0.04298461941546864, 0.02873364104413324, 0.03088694899653395, 0.05112901030853391, 0.0521308503895998, 0.022409267240928277, 0.03459925847790307, 0.016942403525114058, 0.015563751959345408, 0.014364935443633133], 'acc': [0.48644444, 0.75555557, 0.8293333, 0.8717778, 0.8877778, 0.9088889, 0.91955554, 0.93244445, 0.93711114, 0.9537778, 0.9588889, 0.9535556, 0.9637778, 0.96555555, 0.9737778, 0.97333336, 0.9813333, 0.97155553, 0.984, 0.98377776, 0.9855555, 0.992, 0.98933333, 0.9855555, 0.984, 0.99444443, 0.9891111, 0.9955556, 0.9955556, 0.9955556]}