id;0.941281065304301;0.5091111;0.81844443;0.8762222;0.91044444;0.9266667;0.9444444;0.9495556;0.95955557;0.9722222;0.97355556;0.9708889;0.9802222;0.98755556;0.9904444;0.9831111;0.9866667;0.99377775;0.9822222;0.98822224;0.9962222;0.99644446;0.9955556;0.9962222;0.99755555;0.9906667;0.9915556;0.9962222;0.9955556;0.9953333;0.9891111;1.2404289921124776;0.5165858199331496;0.36753691432211133;0.27909557061725193;0.2284454300403595;0.16486677190330293;0.14328302795357176;0.13332770403226216;0.08687030726671219;0.08026942803420954;0.0871074234843254;0.0665891818429033;0.04498439583306511;0.037268182317622835;0.060061400120250054;0.046935586916075814;0.02341409597548449;0.06181175451932682;0.038574741108136044;0.015346501069143415;0.013266218923963607;0.014782036575488745;0.014446657176439962;0.009473909883811657;0.02862068956138359;0.026983634651949008;0.016719206490916096;0.01218523526419368;0.017545650721010234;0.04703129339714845
cr100;0.9046190658324909;0.36355555;0.5791111;0.6988889;0.78355557;0.82044446;0.8513333;0.8708889;0.87644446;0.8935556;0.90533334;0.90533334;0.9177778;0.92244446;0.93355554;0.93377775;0.94244444;0.9402222;0.94;0.95444447;0.95111114;0.95044446;0.96022224;0.9642222;0.96666664;0.9571111;0.964;0.9728889;0.95622224;0.93666667;0.9631111;1.4462806173960367;1.0151767044597202;0.7887486234241061;0.6031724996036953;0.5227137818071578;0.45688279814190336;0.3900594178835551;0.3730796643363105;0.322457510040866;0.28550763176547156;0.27724640067418416;0.25222828677627773;0.24350612886746725;0.205157600555155;0.21239341798755856;0.18059367515643437;0.19037861235936482;0.18075449628962412;0.14898212128215366;0.15702366880575816;0.15460775611135694;0.12708350310722988;0.11082143304083082;0.09656474132008022;0.13852301953898535;0.10356143954396248;0.09359088745382096;0.12926168956359227;0.2061010147581498;0.11498482996556494
trim10;0.886158648198235;0.484;0.78422225;0.8622222;0.8846667;0.9202222;0.9388889;0.944;0.9528889;0.9624444;0.9731111;0.9677778;0.9671111;0.9848889;0.9848889;0.98244447;0.9831111;0.9915556;0.98888886;0.9864445;0.99222225;0.98733336;0.98333335;0.98777777;0.9955556;0.98933333;0.9968889;0.9948889;0.99644446;0.998;0.9826667;1.2775693074332344;0.589348278151618;0.39802778342035083;0.3417579285833571;0.23673396859897508;0.18957151337133513;0.1657975098821852;0.1498992387983534;0.12791046799222627;0.08733832075198492;0.09773561914430724;0.09521176521645652;0.0527085765649875;0.049312073797401455;0.05817410506308079;0.05655960690230131;0.029014655898014705;0.03862311805391477;0.045400303166877064;0.02699164225761261;0.038775587368342614;0.056518901092310746;0.04492105620726943;0.01657725152735495;0.039453932584159905;0.013925139464541441;0.0217991253675686;0.011387537261057231;0.00828580994430619;0.058462440031270185
zero33;0.930299709799136;0.48155555;0.778;0.84555554;0.8897778;0.9022222;0.92355555;0.9357778;0.95111114;0.9546667;0.96066666;0.96977776;0.972;0.9686667;0.9775556;0.9868889;0.98355556;0.984;0.9868889;0.98844445;0.988;0.9915556;0.9851111;0.98933333;0.9948889;0.9962222;0.9957778;0.9902222;0.9904444;0.99444443;0.99644446;1.28155502737893;0.6450474490059747;0.4493990868727366;0.3317863250573476;0.29008319653405085;0.23228912533654106;0.1963667504257626;0.15594468868109915;0.13852528674569395;0.1177053442299366;0.09476311683323649;0.09261374990145366;0.10102338260743353;0.07001504219075044;0.045229077067640094;0.05722663932955927;0.05672056021955278;0.04956648396369484;0.03937753897781173;0.038545208202261066;0.031406655309100945;0.047765340835269954;0.02970186455671986;0.016975402121328646;0.011638188329783992;0.01441735688990189;0.031727167086882724;0.030799539965913735;0.02331176901029216;0.01053823566548009
fft;0.9255094224213559;0.40822223;0.7046667;0.8048889;0.846;0.87755555;0.89;0.9088889;0.9204444;0.92444444;0.9388889;0.9402222;0.95177776;0.9586667;0.9582222;0.9671111;0.97444445;0.9757778;0.9726667;0.9777778;0.978;0.98444444;0.98444444;0.9864445;0.9773333;0.988;0.9915556;0.98955554;0.9908889;0.9728889;0.99311113;1.430924950811598;0.8044779245588515;0.5663726857503255;0.45293467542860244;0.37699624864260356;0.32609168140093486;0.2773717300362057;0.24238852392302618;0.22270473824607;0.19579197798834908;0.17738455736637115;0.1473401542107264;0.12775961727731758;0.14055597191055616;0.1018658050497373;0.08958986571100024;0.07729565688636568;0.09238078951173359;0.0721380772870034;0.065243254163199;0.050067491008175743;0.05351816031254;0.046845166919959914;0.07445441267556614;0.0364189303604265;0.03092236671358761;0.02930420635940714;0.032158339038284287;0.08520078084328109;0.02107937883358035
shuffle;0.9424187073312144;0.5313333;0.818;0.87644446;0.91333336;0.9342222;0.94177777;0.9488889;0.9637778;0.97;0.97933334;0.9808889;0.982;0.97977775;0.9868889;0.9831111;0.9897778;0.9913333;0.98955554;0.98888886;0.9917778;0.99311113;0.99644446;0.99733335;0.98755556;0.99644446;0.9962222;0.994;0.9968889;0.9948889;0.998;1.2088792922231886;0.5162896585199568;0.36486505517694684;0.2607815722293324;0.1971973473959499;0.17487587538030414;0.15711184812254375;0.11732389664153257;0.09650682717478938;0.07037074148820506;0.0556403887387779;0.05728901838800973;0.06672996213535468;0.04097842705001434;0.0508842857417961;0.03334716094761259;0.03216232950819863;0.036077799091115595;0.03898577443696558;0.027834811673292683;0.022241208348319764;0.010892773738544848;0.010470882539844347;0.04294079793692152;0.01507807089590157;0.011541068654196959;0.025700477694264718;0.010556622999254615;0.019492389607760643;0.0068914068427919925
qcr100;0.9446239227507156;0.48644444;0.75555557;0.8293333;0.8717778;0.8877778;0.9088889;0.91955554;0.93244445;0.93711114;0.9537778;0.9588889;0.9535556;0.9637778;0.96555555;0.9737778;0.97333336;0.9813333;0.97155553;0.984;0.98377776;0.9855555;0.992;0.98933333;0.9855555;0.984;0.99444443;0.9891111;0.9955556;0.9955556;0.9955556;1.2486844956080119;0.6201952379544576;0.4545880789491865;0.3474474827448527;0.31645800760057236;0.26169327402114867;0.2334218538072374;0.1997747017244498;0.17822017551792993;0.14658758019076454;0.12045270895957946;0.12639021895329158;0.10575656067662768;0.10544711067941454;0.08467811594406764;0.079146296131942;0.06815546926607688;0.10024449677434233;0.0554491335981422;0.049804410866565174;0.04298461941546864;0.02873364104413324;0.03088694899653395;0.05112901030853391;0.0521308503895998;0.022409267240928277;0.03459925847790307;0.016942403525114058;0.015563751959345408;0.014364935443633133
